<?xml version="1.0" encoding="UTF-8"?>
<svg width="47px" height="23px" viewBox="0 0 47 23" version="1.1" xmlns="http://www.w3.org/2000/svg" xmlns:xlink="http://www.w3.org/1999/xlink">
    <title>arrow right</title>
    <g id="Desktop" stroke="none" stroke-width="1" fill="none" fill-rule="evenodd">
        <g id="Desktop-&gt;-Homepage" transform="translate(-1054.000000, -8325.000000)" stroke="#000000" stroke-width="2">
            <g id="REVIEWS" transform="translate(0.000000, 7380.000000)">
                <g id="controls" transform="translate(503.000000, 946.000000)">
                    <g id="arrow-right" transform="translate(551.000000, 0.000000)">
                        <line x1="0" y1="10.5005666" x2="29.1237329" y2="10.5005666" id="Stroke-1"></line>
                        <polyline id="Stroke-3" points="25.0123837 0 44 10.5014164 25.0123837 21"></polyline>
                    </g>
                </g>
            </g>
        </g>
    </g>
</svg>