<?xml version="1.0" encoding="UTF-8"?>
<svg width="22px" height="22px" viewBox="0 0 22 22" version="1.1" xmlns="http://www.w3.org/2000/svg" xmlns:xlink="http://www.w3.org/1999/xlink">
    <title>Group 7</title>
    <g id="Desktop" stroke="none" stroke-width="1" fill="none" fill-rule="evenodd">
        <g id="Desktop-&gt;-Contact" transform="translate(-727.000000, -787.000000)" stroke="#2290DF" stroke-width="2">
            <g id="CONTACT" transform="translate(695.000000, 589.000000)">
                <g id="account-manager" transform="translate(0.000000, 100.000000)">
                    <g id="name" transform="translate(33.000000, 98.000000)">
                        <g id="Group-7" transform="translate(0.000000, 1.000000)">
                            <path d="M0,10 C0,4.476875 4.476875,0 10,0 C15.523125,0 20,4.476875 20,10 C20,15.523125 15.523125,20 10,20 C4.476875,20 0,15.523125 0,10 Z" id="Stroke-1"></path>
                            <path d="M6.4470625,7.5196875 C6.4470625,5.5571875 8.0376875,3.9665625 10.0001875,3.9665625 C11.9620625,3.9665625 13.5526875,5.5571875 13.5526875,7.5196875 C13.5526875,9.4821875 11.9620625,11.0728125 10.0001875,11.0728125 C8.0376875,11.0728125 6.4470625,9.4821875 6.4470625,7.5196875 Z" id="Stroke-3"></path>
                            <path d="M3.8801875,17.90925 C3.8558125,17.686125 3.8433125,17.45925 3.8433125,17.22925 C3.8433125,13.82925 6.5995625,11.072375 10.0001875,11.072375 C13.4001875,11.072375 16.1570625,13.82925 16.1570625,17.22925 C16.1570625,17.45925 16.1445625,17.686125 16.1195625,17.90925" id="Stroke-5"></path>
                        </g>
                    </g>
                </g>
            </g>
        </g>
    </g>
</svg>